…
>  1     1    71
>  2     2    20
>  3     3    14
>  4     4     8
>  5     6     6
>  6     5     5
>  7     9     5
>  8    13     5
>  9     7     3
> 10     8     3
> ```
> says that 71 packages depended on dplyr for a single function, 20 depended on dplyr for 2, etc. Of course some packages were heavy hitters
> ```
> > filter(rds, pkg == "dplyr") %>% count(revdep, sort=TRUE)
> # A tibble: 208 x 2
>    revdep           n
>    <chr>        <int>
>  1 dbplyr          74
>  2 DiagrammeR      38
>  3 TPP             32
>  4 lipidr          31
>  5 proBatch        25
>  6 radiant.data    25
>  7 sjmisc          25
>  8 tidygraph       25
>  9 highcharter     24
> 10 TPP2D           24
> # … with 198 more rows
> ```
> The functions being used (not weighted by use in the package, so the max n would be 206) is
> ```
> > filter(rds, pkg == "dplyr") %>% count(fun, sort = TRUE)
> # A tibble: 177 x 2
>    fun           n
>    <chr>     <int>
>  1 select      118
>  2 mutate      111
>  3 filter      109
>  4 bind_rows    84
>  5 group_by     84
>  6 %>%          81
>  7 arrange      65
>  8 left_join    58
>  9 summarise    53
> 10 ungroup      46
> # … with 167 more rows
…
