…
**Kevin Rue-Albrecht** (11:00:25):
> Would`BiocSet`benefit from an`as.list()`function, or are users expected to work with`gs %>% group_by(set) %>%  ...`?
> ```
> > gs = go_sets(org.Hs.eg.db, "ENSEMBL")
> 'select()' returned 1:many mapping between keys and columns
> > as.list(gs)
>  Show Traceback
>  
>  Rerun with Debug
>  Error in as.list.default(gs) : 
>   no method for coercing this S4 class to a vector 
> > gs %>% group_by(set) 
> # A tibble: 282,353 x 2
> # Groups:   set [17,495]
>    element         set       
>    <chr>           <fct>     
>  1 ENSG00000151729 GO:0000002
>  2 ENSG00000025708 GO:0000002
>  3 ENSG00000068305 GO:0000002
>  4 ENSG00000115204 GO:0000002
>  5 ENSG00000198836 GO:0000002
>  6 ENSG00000196365 GO:0000002
>  7 ENSG00000117020 GO:0000002
>  8 ENSG00000275199 GO:0000002
>  9 ENSG00000114120 GO:0000002
> 10 ENSG00000140451 GO:0000002
> # … with 282,343 more rows
…
**Kevin Rue-Albrecht** (16:08:17):
> I have had in my line of sight the`unisets::relations()`accessor for a while now, which currently returns the actual slot (`Hits`object, with`from`and`to`as`integer`), while it really should access a  table like the`show`method displays.


## 2019-06-20

**Kevin Rue-Albrecht** (06:40:03):
> Actually, in terms of feedback for BiocSet, while we’re on the subject of`show`methods: is the current view expected to be “final” or are there plans to make more compact too? From the`?BiocSet`help page:
> ```
> > es <- BiocSet(set1 = letters, set2 = LETTERS)
> > es
> class: BiocSet
> 
> es_element():
> # A tibble: 52 x 1
>   element
>   <chr>  
> 1 a      
> 2 b      
> 3 c      
> # … with 49 more rows
> 
> es_set():
> # A tibble: 2 x 1
>   set  
>   <fct>
> 1 set1 
> 2 set2 
> 
> es_elementset() <active>:
> # A tbl_elementset: 52 x 2
>   element set  
>   <chr>   <fct>
> 1 a       set1 
> 2 b       set1 
> 3 c       set1 
> # … with 49 more rows
…
>   set         n
>   <chr>   <int>
> 1 acinar     52
> 2 beta        4
> 3 delta       1
> 4 duct       42
> 5 unclear     1
> ```
> I'd argue the display is more informative than the`DataFrame`that`pred`is
> ```
> > es
> class: BiocSet
> 
> es_element():
> # A tibble: 100 x 11
>   element alpha endothelial delta  beta unclear  duct acinar    pp mesenchymal
>   <chr>   <dbl>       <dbl> <dbl> <dbl>   <dbl> <dbl>  <dbl> <dbl>       <dbl>
> 1 D2ex_1  0.180       0.215 0.184 0.197   0.257 0.350  0.477 0.179       0.242
> 2 D2ex_2  0.156       0.193 0.146 0.159   0.273 0.342  0.492 0.148       0.226
> 3 D2ex_3  0.157       0.185 0.158 0.159   0.252 0.322  0.471 0.151       0.184
> # … with 97 more rows, and 1 more variable: epsilon <dbl>
> 
> es_set():
> # A tibble: 5 x 1
>   set   
>   <chr> 
> 1 acinar
> 2 beta  
> 3 delta 
> # … with 2 more rows
> 
> es_elementset() <active>:
> # A tbl_elementset: 100 x 2
>   element set   
>   <chr>   <chr> 
> 1 D2ex_1  acinar
> 2 D2ex_2  acinar
> 3 D2ex_3  acinar
> # … with 97 more rows
…
> ```
> pred <- SingleR(test=sceG, ref=sceM, labels=sceM$label)
> ```
> which is a DataFrame. This could instead be a BiocSet
> ```
> gs = as_tibble(pred, rownames="element") %>%
>     select(element, set = labels, everything()) %>% 
>    BiocSet_from_elementset()
> ```
> and if one wanted to add this back to the SCE one could
> ```
> > tibble_by_element(gs)   # or data.frame_by_element()
> Joining, by = "set"
> Joining, by = "element"
> # A tibble: 100 x 13
>    element set   scores.alpha scores.endothel… scores.delta scores.beta
>    <chr>   <chr>        <dbl>            <dbl>        <dbl>       <dbl>
>  1 D2ex_1  acin…        0.180            0.215        0.184       0.197
>  2 D2ex_10 acin…        0.169            0.202        0.172       0.183
>  3 D2ex_11 acin…        0.149            0.170        0.153       0.151
>  4 D2ex_12 duct         0.192            0.227        0.191       0.208
>  5 D2ex_13 acin…        0.154            0.196        0.156       0.160
>  6 D2ex_14 duct         0.161            0.215        0.167       0.169
>  7 D2ex_15 acin…        0.169            0.161        0.165       0.169
>  8 D2ex_16 acin…        0.197            0.195        0.184       0.200
>  9 D2ex_17 duct         0.162            0.178        0.162       0.154
> 10 D2ex_18 acin…        0.201            0.230        0.194       0.208
> # … with 90 more rows, and 7 more variables: scores.unclear <dbl>,
> #   scores.duct <dbl>, scores.acinar <dbl>, scores.pp <dbl>,
> #   scores.mesenchymal <dbl>, scores.epsilon <dbl>, first.labels <chr>
…
